{
    "autoRefresh": false,
    "browser": "Google Chrome Canary",
    "pollTimeout": 1200,
    "debugOnly": true,
    "debugFilter": "USER_DEBUG|FATAL_ERROR",
    "apiVersion": "38.0",
    "deployOptions": {
        "checkOnly": false,
        "testLevel": "runLocalTests",
        "verbose": false,
        "ignoreWarnings": true
    },
    "username": "devone@dev.ca",
    "password": "Tr41n1ngKVGxIAyQSMF2cWzqRAtiwOzO",
    "url": "https://login.salesforce.com",
    "autoCompile": true,
    "src": "src"
}